<?xml version="1.0" encoding="utf-8"?>
<!-- Generator: Adobe Illustrator 19.2.1, SVG Export Plug-In . SVG Version: 6.00 Build 0)  -->
<svg version="1.1" id="Camada_1" xmlns="http://www.w3.org/2000/svg" xmlns:xlink="http://www.w3.org/1999/xlink" x="0px" y="0px"
	 viewBox="0 0 395.4 191.5" style="enable-background:new 0 0 395.4 191.5;" xml:space="preserve">
<style type="text/css">
	.st0{fill-rule:evenodd;clip-rule:evenodd;fill:#9C9B9B;}
	.st1{fill-rule:evenodd;clip-rule:evenodd;fill:#2A3D59;}
	.st2{fill-rule:evenodd;clip-rule:evenodd;fill:#EF7738;}
	.st3{fill:#2A3D59;}
	.st4{fill:#9C9B9B;}
</style>
<g>
	<g>
		<g>
			<polygon class="st0" points="155.5,157.7 160.5,149.5 38.6,149.5 82.5,72.5 77.5,64.5 24.6,157.7 			"/>
		</g>
		<g>
			<polygon class="st1" points="21,151.9 77.4,53 126.3,131.4 135.5,131.4 77.2,36.6 16.1,143.9 			"/>
		</g>
		<g>
			<polygon class="st2" points="52.5,137.3 48.6,143.6 159.8,143.7 91.6,33.8 81.3,33.8 146.3,137.3 			"/>
		</g>
	</g>
	<g>
		<g>
			<path class="st3" d="M376,68.9c0.4-0.5,0.7-1,0.9-1.5c0.3-0.5,0.5-1,0.6-1.5h-0.1c-0.4,0-0.7-0.1-0.9-0.4
				c-0.2-0.3-0.4-0.7-0.4-1.1c0-0.5,0.1-0.9,0.4-1.2c0.3-0.3,0.6-0.5,1.1-0.5c0.5,0,0.9,0.2,1.2,0.6c0.3,0.4,0.5,1,0.5,1.7
				c0,0.6-0.2,1.3-0.7,2.1c-0.4,0.8-1.1,1.6-2,2.5L376,68.9z"/>
		</g>
		<g>
			<path class="st3" d="M189,65.3V33.8h3.9v27.8h20.5v3.6H189z"/>
			<path class="st3" d="M218.6,43.3v14.3c0,2.3,0.4,3.8,1.3,4.6c0.9,0.8,2.5,1.2,5.1,1.2s4.2-0.4,5-1.2c0.9-0.8,1.3-2.3,1.3-4.6
				V43.3h2.8v15c0,2.7-0.7,4.7-2.1,5.8c-1.4,1.2-3.7,1.8-7,1.8s-5.6-0.6-7-1.8c-1.4-1.2-2.1-3.1-2.1-5.8v-15H218.6z"/>
			<path class="st3" d="M248.7,65.3H247l-10.6-22h3l8.5,17.6l8.5-17.6h3L248.7,65.3z"/>
			<path class="st3" d="M262.2,65.3V43.1h2.8v22.1H262.2z"/>
			<path class="st3" d="M269.3,62l1.6-2.4c1.6,1.2,3.2,2.1,4.9,2.8c1.7,0.6,3.3,1,5,1c2,0,3.7-0.4,5-1.3c1.3-0.9,1.9-2,1.9-3.3
				c0-1.1-0.5-2-1.4-2.7s-2.2-1.1-3.8-1.2c-0.4,0-0.9-0.1-1.7-0.1c-3.6-0.3-6.1-0.7-7.4-1.3c-1-0.5-1.8-1.1-2.3-1.9
				c-0.5-0.8-0.8-1.7-0.8-2.6c0-1.8,0.8-3.2,2.4-4.4c1.6-1.1,3.6-1.7,6.2-1.7c1.8,0,3.6,0.3,5.4,0.9c1.8,0.6,3.5,1.5,5.1,2.7
				l-1.6,2.3c-1.4-1.1-2.8-1.9-4.3-2.5c-1.5-0.6-3-0.8-4.6-0.8c-1.7,0-3,0.3-4.1,1c-1.1,0.6-1.6,1.5-1.6,2.4c0,0.4,0.1,0.7,0.3,1.1
				c0.2,0.3,0.4,0.6,0.8,0.9c0.9,0.7,2.9,1.1,5.9,1.3c1.4,0.1,2.5,0.2,3.2,0.3c2.2,0.3,4,1,5.3,2.2c1.3,1.2,2,2.6,2,4.4
				c0,2.1-0.9,3.8-2.7,5.1c-1.8,1.3-4.1,2-7,2c-2.2,0-4.2-0.3-6.1-1S271,63.3,269.3,62z"/>
			<path class="st3" d="M305.2,65.9c-3.3,0-6-1.1-8.2-3.3c-2.1-2.2-3.2-4.9-3.2-8.3c0-3.4,1.1-6.1,3.2-8.3c2.2-2.2,4.9-3.3,8.2-3.3
				c3.3,0,6,1.1,8.2,3.3c2.2,2.2,3.3,4.9,3.3,8.3c0,3.3-1.1,6.1-3.2,8.3C311.2,64.8,308.5,65.9,305.2,65.9z M305.2,63.3
				c2.5,0,4.5-0.8,6.1-2.5c1.6-1.7,2.4-3.8,2.4-6.4c0-2.6-0.8-4.8-2.4-6.4s-3.7-2.5-6.2-2.5c-2.5,0-4.5,0.8-6.1,2.5
				c-1.6,1.7-2.4,3.8-2.4,6.4s0.8,4.7,2.4,6.4C300.7,62.4,302.7,63.3,305.2,63.3z"/>
			<path class="st3" d="M325.1,65.3V45.8h-9.3v-2.5h21.3v2.5h-9.3v19.5H325.1z"/>
			<path class="st3" d="M341.9,65.3V45.8h-9.3v-2.5h21.3v2.5h-9.3v19.5H341.9z"/>
			<path class="st3" d="M364.5,65.9c-3.3,0-6-1.1-8.2-3.3c-2.1-2.2-3.2-4.9-3.2-8.3c0-3.4,1.1-6.1,3.2-8.3c2.2-2.2,4.9-3.3,8.2-3.3
				c3.3,0,6,1.1,8.2,3.3c2.2,2.2,3.3,4.9,3.3,8.3c0,3.3-1.1,6.1-3.2,8.3C370.6,64.8,367.8,65.9,364.5,65.9z M364.5,63.3
				c2.5,0,4.5-0.8,6.1-2.5c1.6-1.7,2.4-3.8,2.4-6.4c0-2.6-0.8-4.8-2.4-6.4s-3.7-2.5-6.2-2.5c-2.5,0-4.5,0.8-6.1,2.5
				c-1.6,1.7-2.4,3.8-2.4,6.4s0.8,4.7,2.4,6.4C360,62.4,362,63.3,364.5,63.3z"/>
			<path class="st3" d="M189,111.2V79.7h24.7v3.6h-20.8v9.2h12.6v3.6h-12.6v15H189z"/>
			<path class="st3" d="M216.1,111.2v-22h12.6c2.2,0,3.8,0.5,5.1,1.6c1.2,1.1,1.8,2.6,1.8,4.5c0,1.6-0.5,3-1.4,4.1
				c-1,1.1-2.2,1.8-3.8,2.1l5.5,9.7h-3l-5.5-9.6h-8.5v9.6H216.1z M218.8,99h9.7c1.4,0,2.4-0.3,3.1-0.9c0.7-0.6,1.1-1.5,1.1-2.7
				c0-1.2-0.4-2.1-1.1-2.7c-0.7-0.6-1.7-1-3-1h-9.9V99z"/>
			<path class="st3" d="M235.6,111.2l10.8-22h2.3l10.9,22h-3l-3-5.9h-12.2l-2.9,5.9H235.6z M242.7,102.7h9.7l-4.9-9.8L242.7,102.7z"
				/>
			<path class="st3" d="M262.7,111.2v-22h1.4l14.3,16.5V89.1h2.8v22h-1.4l-14.3-16.5v16.5H262.7z"/>
			<path class="st3" d="M284.2,111.2L299,91.7h-13.6v-2.5H304l-14.5,19.5h14.5v2.5H284.2z"/>
			<path class="st4" d="M355,101.9c-0.4,0.6-0.8,1.1-1.3,1.6c-0.5,0.5-1,1-1.5,1.5l5.1,5.9h-4.6l-3.2-3.6c-1.9,1.6-3.8,2.8-5.6,3.5
				s-3.6,1.1-5.6,1.1c-3.3,0-5.9-0.9-7.8-2.6c-2-1.7-2.9-4-2.9-6.8c0-2.3,0.7-4.3,2.1-6c1.4-1.8,3.6-3.4,6.5-4.8l-7.9-9.4h18.9
				l2,3.2h-13.5l14.1,16.6c0.7-0.7,1.3-1.4,1.7-1.8c0.4-0.5,0.8-0.9,1.1-1.4L355,101.9z M347.3,104.7l-8.9-10.4
				c-2.4,1-4.1,2.2-5.3,3.6c-1.2,1.4-1.8,2.9-1.8,4.6c0,1.8,0.6,3.3,1.9,4.4c1.3,1.1,2.9,1.7,5,1.7c1.5,0,3.1-0.3,4.6-1
				C344.4,107,345.8,106,347.3,104.7z"/>
			<path class="st3" d="M188.9,157v-31.4h18c3.1,0,5.5,0.8,7.2,2.3s2.6,3.7,2.6,6.4c0,2.3-0.7,4.2-2.1,5.9c-1.4,1.6-3.2,2.6-5.4,3
				l7.9,13.8h-4.3l-7.9-13.8h-12.2V157H188.9z M192.8,139.6h13.9c2,0,3.5-0.4,4.5-1.3c1-0.9,1.5-2.2,1.5-3.8c0-1.7-0.5-2.9-1.5-3.9
				c-1-0.9-2.4-1.4-4.3-1.4h-14.1V139.6z"/>
			<path class="st3" d="M231.8,157.6c-3.3,0-6-1.1-8.2-3.3c-2.1-2.2-3.2-4.9-3.2-8.3c0-3.4,1.1-6.1,3.2-8.3c2.2-2.2,4.9-3.3,8.2-3.3
				c3.3,0,6,1.1,8.2,3.3c2.2,2.2,3.3,4.9,3.3,8.3c0,3.3-1.1,6.1-3.2,8.3C237.8,156.5,235.1,157.6,231.8,157.6z M231.8,155.1
				c2.5,0,4.5-0.8,6.1-2.5c1.6-1.7,2.4-3.8,2.4-6.4c0-2.6-0.8-4.8-2.4-6.4c-1.6-1.7-3.7-2.5-6.2-2.5c-2.5,0-4.5,0.8-6.1,2.5
				s-2.4,3.8-2.4,6.4s0.8,4.7,2.4,6.4C227.3,154.2,229.3,155.1,231.8,155.1z"/>
			<path class="st3" d="M247.7,157v-22h2.5l8.9,13.5l9-13.5h2.5v22h-2.7v-17.2l-8.7,13l-8.7-13V157H247.7z"/>
			<path class="st3" d="M273.5,157l10.8-22h2.3l10.9,22h-3l-3-5.9h-12.2l-2.9,5.9H273.5z M280.6,148.6h9.7l-4.9-9.8L280.6,148.6z"/>
			<path class="st3" d="M300.6,157v-22h1.4l14.3,16.5V135h2.8v22h-1.4l-14.3-16.5V157H300.6z"/>
			<path class="st3" d="M335.1,157.6c-3.3,0-6-1.1-8.2-3.3c-2.1-2.2-3.2-4.9-3.2-8.3c0-3.4,1.1-6.1,3.2-8.3c2.2-2.2,4.9-3.3,8.2-3.3
				c3.3,0,6,1.1,8.2,3.3c2.2,2.2,3.3,4.9,3.3,8.3c0,3.3-1.1,6.1-3.2,8.3C341.1,156.5,338.4,157.6,335.1,157.6z M335.1,155.1
				c2.5,0,4.5-0.8,6.1-2.5c1.6-1.7,2.4-3.8,2.4-6.4c0-2.6-0.8-4.8-2.4-6.4c-1.6-1.7-3.7-2.5-6.2-2.5c-2.5,0-4.5,0.8-6.1,2.5
				c-1.6,1.7-2.4,3.8-2.4,6.4s0.8,4.7,2.4,6.4C330.6,154.2,332.6,155.1,335.1,155.1z"/>
		</g>
	</g>
</g>
</svg>
